error: wrong input to derive-deftly driver inner macro derive_deftly_driver_Driver; might be due to incompatible derive-deftly versions(s)
  --> ui/badinternals.rs:9:10
   |
9  | #[derive(Deftly)]
   |          ^^^^^^
...
17 | derive_deftly_driver_Driver! { GARBAGE -> DRIVER }
   | -------------------------------------------------- in this macro invocation
   |
   = note: this error originates in the macro `derive_deftly_driver_Driver` (in Nightly builds, run with -Z macro-backtrace for more info)

error: wrong input to derive-deftly template macro derive_deftly_template_Template; might be due to incompatible derive-deftly versions(s)
  --> ui/badinternals.rs:13:1
   |
13 | / define_derive_deftly! {
14 | |     Template:
15 | | }
   | |_^
...
18 |   derive_deftly_template_Template! { GARBAGE -> TEMPLATE }
   |   -------------------------------------------------------- in this macro invocation
   |
   = note: this error originates in the macro `derive_deftly_template_Template` (in Nightly builds, run with -Z macro-backtrace for more info)

error: bad input to derive_deftly_engine inner template expansion proc macro; might be due to incompatible derive-deftly versions(s)
  --> ui/badinternals.rs:19:1
   |
19 | derive_deftly::derive_deftly_engine! { GARBAGE -> INNARDS }
   | ^^^^^^^^^^^^^^^^^^^^^^^^^^^^^^^^^^^^^^^^^^^^^^^^^^^^^^^^^^^
   |
   = note: this error originates in the macro `derive_deftly::derive_deftly_engine` (in Nightly builds, run with -Z macro-backtrace for more info)

error: expected curly braces
  --> ui/badinternals.rs:19:40
   |
19 | derive_deftly::derive_deftly_engine! { GARBAGE -> INNARDS }
   |                                        ^^^^^^^

error: bad input to derive_deftly_engine inner template expansion proc macro; might be due to incompatible derive-deftly versions(s)
  --> ui/badinternals.rs:44:1
   |
44 | / derive_deftly::derive_deftly_engine! {
45 | |     { pub struct StructName {} }
46 | |     [200 0]
47 | |     ( )
...  |
51 | |     RANDOM STUFF
52 | | }
   | |_^
   |
   = note: this error originates in the macro `derive_deftly::derive_deftly_engine` (in Nightly builds, run with -Z macro-backtrace for more info)

error: Incompatible major version for AOPTIONS (driver 200, template/engine 1)
  --> ui/badinternals.rs:44:1
   |
44 | / derive_deftly::derive_deftly_engine! {
45 | |     { pub struct StructName {} }
46 | |     [200 0]
47 | |     ( )
...  |
51 | |     RANDOM STUFF
52 | | }
   | |_^
   |
   = note: this error originates in the macro `derive_deftly::derive_deftly_engine` (in Nightly builds, run with -Z macro-backtrace for more info)
