error: multiple conditions matched (in this field)
  --> ui/badselect1.rs:19:5
   |
19 | /     #[deftly(right)]
20 | |     #[deftly(left)]
21 | |     c: usize,
   | |____________^
...
24 | / derive_deftly_adhoc! {
25 | |     Both:
26 | |
27 | |     #[derive(Default, Debug)]
...  |
45 | | }
   | |_- in this macro invocation
   |
   = note: this error originates in the macro `derive_deftly_driver_Both` which comes from the expansion of the macro `derive_deftly_adhoc` (in Nightly builds, run with -Z macro-backtrace for more info)

error: multiple conditions matched (true condition)
  --> ui/badselect1.rs:31:15
   |
31 |               fmeta(left) { $fname: $ftype, }
   |               ^^^^^

error: multiple conditions matched (true condition)
  --> ui/badselect1.rs:32:15
   |
32 |               fmeta(right) { }
   |               ^^^^^

error: no conditions matched, and no else clause (in this field)
  --> ui/badselect1.rs:15:5
   |
15 | /     #[deftly(left)]
16 | |     a: usize,
   | |____________^
...
24 | / derive_deftly_adhoc! {
25 | |     Both:
26 | |
27 | |     #[derive(Default, Debug)]
...  |
45 | | }
   | |_- in this macro invocation
   |
   = note: this error originates in the macro `derive_deftly_driver_Both` which comes from the expansion of the macro `derive_deftly_adhoc` (in Nightly builds, run with -Z macro-backtrace for more info)

error: no conditions matched, and no else clause (select1 expansion)
  --> ui/badselect1.rs:39:15
   |
39 |             ${select1
   |               ^^^^^^^

error[E0433]: failed to resolve: use of undeclared type `Left`
  --> ui/badselect1.rs:48:33
   |
48 |     assert_eq!(format!("{:?}", &Left::default()), "Left { a: 0 }",)
   |                                 ^^^^ use of undeclared type `Left`
   |
help: there is an enum variant `core::fmt::Alignment::Left` and 4 others; try using the variant's enum
   |
48 |     assert_eq!(format!("{:?}", &core::fmt::Alignment::default()), "Left { a: 0 }",)
   |                                 ~~~~~~~~~~~~~~~~~~~~
48 |     assert_eq!(format!("{:?}", &itertools::Either::default()), "Left { a: 0 }",)
   |                                 ~~~~~~~~~~~~~~~~~
48 |     assert_eq!(format!("{:?}", &itertools::EitherOrBoth::default()), "Left { a: 0 }",)
   |                                 ~~~~~~~~~~~~~~~~~~~~~~~
48 |     assert_eq!(format!("{:?}", &std::fmt::Alignment::default()), "Left { a: 0 }",)
   |                                 ~~~~~~~~~~~~~~~~~~~
