error: basic (in this field)
  --> ui/explerror.rs:6:5
   |
6  |       field: usize,
   |       ^^^^^^^^^^^^
...
9  | / derive_deftly_adhoc! {
10 | |     Struct:
11 | |     ${for fields { ${error "basic"}} }
12 | | }
   | |_- in this macro invocation
   |
   = note: this error originates in the macro `derive_deftly_driver_Struct` which comes from the expansion of the macro `derive_deftly_adhoc` (in Nightly builds, run with -Z macro-backtrace for more info)

error: basic (template)
  --> ui/explerror.rs:11:28
   |
11 |     ${for fields { ${error "basic"}} }
   |                            ^^^^^^^
